<svg width="28" height="29" viewBox="0 0 28 29" fill="none" xmlns="http://www.w3.org/2000/svg">
<g clip-path="url(#clip0_51:52)">
<path d="M28.0029 14.3048C28.0029 18.0987 26.5278 21.7372 23.902 24.4198C21.2762 27.1025 17.7149 28.6096 14.0014 28.6096C10.288 28.6096 6.72671 27.1025 4.10093 24.4198C1.47515 21.7372 0 18.0987 0 14.3048C0 10.5109 1.47515 6.87245 4.10093 4.18978C6.72671 1.50711 10.288 0 14.0014 0C17.7149 0 21.2762 1.50711 23.902 4.18978C26.5278 6.87245 28.0029 10.5109 28.0029 14.3048V14.3048ZM21.0547 8.88686C20.9297 8.75958 20.7808 8.65937 20.617 8.59221C20.4532 8.52505 20.2779 8.49233 20.1014 8.49601C19.9249 8.49968 19.751 8.53967 19.59 8.61358C19.4291 8.6875 19.2843 8.79383 19.1645 8.9262L13.0861 16.8385L9.42298 13.0943C9.17414 12.8574 8.84503 12.7284 8.50497 12.7345C8.1649 12.7407 7.84045 12.8814 7.59995 13.1271C7.35945 13.3728 7.22169 13.7043 7.21569 14.0518C7.20969 14.3992 7.33592 14.7354 7.56778 14.9897L12.1988 19.7228C12.3235 19.85 12.4721 19.9502 12.6356 20.0175C12.7991 20.0848 12.9742 20.1178 13.1504 20.1145C13.3267 20.1111 13.5004 20.0715 13.6614 19.9981C13.8223 19.9247 13.9672 19.8189 14.0872 19.687L21.0739 10.7644C21.3121 10.5114 21.4437 10.173 21.4404 9.82196C21.4372 9.47093 21.2993 9.1352 21.0564 8.88686H21.0547Z" fill="#00C2FF"/>
</g>
<defs>
<clipPath id="clip0_51:52">
<rect width="28" height="29" fill="white"/>
</clipPath>
</defs>
</svg>
